module GoTempl

go 1.22

require (
	github.com/andybalholm/brotli v1.1.0 // indirect
	github.com/dustin/go-humanize v1.0.1 // indirect
	github.com/gofiber/fiber/v2 v2.52.4 // indirect
	github.com/gofiber/template v1.8.3 // indirect
	github.com/gofiber/template/html/v2 v2.1.1 // indirect
	github.com/gofiber/utils v1.1.0 // indirect
	github.com/google/uuid v1.6.0 // indirect
	github.com/hashicorp/golang-lru/v2 v2.0.7 // indirect
	github.com/jmoiron/sqlx v1.3.5 // indirect
	github.com/klauspost/compress v1.17.8 // indirect
	github.com/mattn/go-colorable v0.1.13 // indirect
	github.com/mattn/go-isatty v0.0.20 // indirect
	github.com/mattn/go-runewidth v0.0.15 // indirect
	github.com/ncruces/go-strftime v0.1.9 // indirect
	github.com/remyoudompheng/bigfft v0.0.0-20230129092748-24d4a6f8daec // indirect
	github.com/rivo/uniseg v0.4.7 // indirect
	github.com/rs/xid v1.5.0 // indirect
	github.com/valyala/bytebufferpool v1.0.0 // indirect
	github.com/valyala/fasthttp v1.52.0 // indirect
	github.com/valyala/tcplisten v1.0.0 // indirect
	golang.org/x/sys v0.19.0 // indirect
	modernc.org/gc/v3 v3.0.0-20240304020402-f0dba7c97c2b // indirect
	modernc.org/libc v1.49.3 // indirect
	modernc.org/mathutil v1.6.0 // indirect
	modernc.org/memory v1.8.0 // indirect
	modernc.org/sqlite v1.29.7 // indirect
	modernc.org/strutil v1.2.0 // indirect
	modernc.org/token v1.1.0 // indirect
)
